%% DO NOT EDIT this file manually; it is automatically
%% generated from LSR http://lsr.di.unimi.it
%% Make any changes in LSR itself, or in Documentation/snippets/new/ ,
%% and then run scripts/auxiliar/makelsr.py
%%
%% This file is in the public domain.
\version "2.23.9"

\header {
  lsrtags = "chords, specific-notation"

  texidoc = "
To add bar line indications in the @code{ChordNames} context, add the
@code{Bar_engraver}.

"
  doctitle = "Adding bar lines to ChordNames context"
} % begin verbatim

\new ChordNames \with {
  \override BarLine.bar-extent = #'(-2 . 2)
  \consists "Bar_engraver"
}

\chordmode {
  f1:maj7 f:7 bes:7
}
