%% DO NOT EDIT this file manually; it is automatically
%% generated from LSR http://lsr.di.unimi.it
%% Make any changes in LSR itself, or in Documentation/snippets/new/ ,
%% and then run scripts/auxiliar/makelsr.py
%%
%% This file is in the public domain.
\version "2.23.9"

\header {
  lsrtags = "midi, scheme-language"

  texidoc = "
The following example shows how to create a dynamic marking, not
included in the default list, and assign it a specific value so that it
can be used to affect MIDI output.

The dynamic mark @code{\\rfz} is assigned a value of @code{0.9}.

"
  doctitle = "Creating custom dynamics in MIDI output"
} % begin verbatim

#(define (myDynamics dynamic)
    (if (equal? dynamic "rfz")
      0.9
      (default-dynamic-absolute-volume dynamic)))

\score {
  \new Staff {
    \set Staff.midiInstrument = #"cello"
    \set Score.dynamicAbsoluteVolumeFunction = #myDynamics
    \new Voice {
      \relative {
        a'4\pp b c-\rfz
      }
    }
  }
  \layout {}
  \midi {}
}
